# Fdb version 3
["pdflatex"] 1610862457 "/home/quentin/Documents/TPs/ProgObj/tp1-oop/doc/rapport.tex" "/home/quentin/Documents/TPs/ProgObj/tp1-oop/doc/rapport.pdf" "rapport" 1610862457
  "/home/quentin/Documents/TPs/ProgObj/tp1-oop/doc/rapport.aux" 1610862457 2057 80aa1d1e819b59482183e9d99c27c5cd ""
  "/home/quentin/Documents/TPs/ProgObj/tp1-oop/doc/rapport.tex" 1610862457 12538 129daddd5d8c4ca417d029e120cfb3e8 ""
  "/usr/share/texmf-dist/fonts/enc/dvips/cm-super/cm-super-t1.enc" 1607249373 2971 def0b6c1f0b107b3b936def894055589 ""
  "/usr/share/texmf-dist/fonts/map/fontname/texfonts.map" 1607249373 3524 cb3e574dea2d1052e39280babc910dc8 ""
  "/usr/share/texmf-dist/fonts/tfm/jknappen/ec/ecbx1000.tfm" 1607249373 3584 2d666ecf6d466d8b007246bc2f94d9da ""
  "/usr/share/texmf-dist/fonts/tfm/jknappen/ec/ecbx1200.tfm" 1607249373 3584 402da0b29eafbad07963b1224b222f18 ""
  "/usr/share/texmf-dist/fonts/tfm/jknappen/ec/ecbx1440.tfm" 1607249373 3584 13049b61b922a28b158a38aeff75ee9b ""
  "/usr/share/texmf-dist/fonts/tfm/jknappen/ec/eccc1000.tfm" 1607249373 3072 0e825b3b77feef5bf88d50fba1209c90 ""
  "/usr/share/texmf-dist/fonts/tfm/jknappen/ec/ecrm0500.tfm" 1607249373 3584 178baad7ffca7f5d3428a83bd7cc64c3 ""
  "/usr/share/texmf-dist/fonts/tfm/jknappen/ec/ecrm0800.tfm" 1607249373 3584 49064b465390a8e316a3c8417a050403 ""
  "/usr/share/texmf-dist/fonts/tfm/jknappen/ec/ecrm1000.tfm" 1607249373 3584 adb004a0c8e7c46ee66cad73671f37b4 ""
  "/usr/share/texmf-dist/fonts/tfm/jknappen/ec/ecrm1200.tfm" 1607249373 3584 f80ddd985bd00e29e9a6047ebd9d4781 ""
  "/usr/share/texmf-dist/fonts/tfm/jknappen/ec/ecrm1440.tfm" 1607249373 3584 3169d30142b88a27d4ab0e3468e963a2 ""
  "/usr/share/texmf-dist/fonts/tfm/jknappen/ec/ecrm1728.tfm" 1607249373 3584 3c76ccb63eda935a68ba65ba9da29f1a ""
  "/usr/share/texmf-dist/fonts/tfm/jknappen/ec/ectt0800.tfm" 1607249373 1536 0b0b8ca286de6a006b681926403f35cd ""
  "/usr/share/texmf-dist/fonts/tfm/jknappen/ec/ectt1000.tfm" 1607249373 1536 06717a2b50de47d4087ac0e6cd759455 ""
  "/usr/share/texmf-dist/fonts/tfm/public/amsfonts/cmextra/cmex7.tfm" 1607249373 1004 54797486969f23fa377b128694d548df ""
  "/usr/share/texmf-dist/fonts/tfm/public/amsfonts/cmextra/cmex8.tfm" 1607249373 988 bdf658c3bfc2d96d3c8b02cfc1c94c20 ""
  "/usr/share/texmf-dist/fonts/tfm/public/amsfonts/symbols/msam10.tfm" 1607249373 916 f87d7c45f9c908e672703b83b72241a3 ""
  "/usr/share/texmf-dist/fonts/tfm/public/amsfonts/symbols/msam5.tfm" 1607249373 924 9904cf1d39e9767e7a3622f2a125a565 ""
  "/usr/share/texmf-dist/fonts/tfm/public/amsfonts/symbols/msam7.tfm" 1607249373 928 2dc8d444221b7a635bb58038579b861a ""
  "/usr/share/texmf-dist/fonts/tfm/public/amsfonts/symbols/msbm10.tfm" 1607249373 908 2921f8a10601f252058503cc6570e581 ""
  "/usr/share/texmf-dist/fonts/tfm/public/amsfonts/symbols/msbm5.tfm" 1607249373 940 75ac932a52f80982a9f8ea75d03a34cf ""
  "/usr/share/texmf-dist/fonts/tfm/public/amsfonts/symbols/msbm7.tfm" 1607249373 940 228d6584342e91276bf566bcf9716b83 ""
  "/usr/share/texmf-dist/fonts/tfm/public/cm/cmex10.tfm" 1607249373 992 662f679a0b3d2d53c1b94050fdaa3f50 ""
  "/usr/share/texmf-dist/fonts/tfm/public/cm/cmmi12.tfm" 1607249373 1524 4414a8315f39513458b80dfc63bff03a ""
  "/usr/share/texmf-dist/fonts/tfm/public/cm/cmmi6.tfm" 1607249373 1512 f21f83efb36853c0b70002322c1ab3ad ""
  "/usr/share/texmf-dist/fonts/tfm/public/cm/cmmi8.tfm" 1607249373 1520 eccf95517727cb11801f4f1aee3a21b4 ""
  "/usr/share/texmf-dist/fonts/tfm/public/cm/cmr12.tfm" 1607249373 1288 655e228510b4c2a1abe905c368440826 ""
  "/usr/share/texmf-dist/fonts/tfm/public/cm/cmr6.tfm" 1607249373 1300 b62933e007d01cfd073f79b963c01526 ""
  "/usr/share/texmf-dist/fonts/tfm/public/cm/cmr8.tfm" 1607249373 1292 21c1c5bfeaebccffdb478fd231a0997d ""
  "/usr/share/texmf-dist/fonts/tfm/public/cm/cmsy10.tfm" 1607249373 1124 6c73e740cf17375f03eec0ee63599741 ""
  "/usr/share/texmf-dist/fonts/tfm/public/cm/cmsy6.tfm" 1607249373 1116 933a60c408fc0a863a92debe84b2d294 ""
  "/usr/share/texmf-dist/fonts/tfm/public/cm/cmsy8.tfm" 1607249373 1120 8b7d695260f3cff42e636090a8002094 ""
  "/usr/share/texmf-dist/fonts/type1/public/amsfonts/cm/cmmi10.pfb" 1607249373 36299 5f9df58c2139e7edcf37c8fca4bd384d ""
  "/usr/share/texmf-dist/fonts/type1/public/amsfonts/cm/cmmi7.pfb" 1607249373 36281 c355509802a035cadc5f15869451dcee ""
  "/usr/share/texmf-dist/fonts/type1/public/amsfonts/cm/cmr10.pfb" 1607249373 35752 024fb6c41858982481f6968b5fc26508 ""
  "/usr/share/texmf-dist/fonts/type1/public/amsfonts/cm/cmr7.pfb" 1607249373 32762 224316ccc9ad3ca0423a14971cfa7fc1 ""
  "/usr/share/texmf-dist/fonts/type1/public/amsfonts/cm/cmsy10.pfb" 1607249373 32569 5e5ddc8df908dea60932f3c484a54c0d ""
  "/usr/share/texmf-dist/fonts/type1/public/cm-super/sfbx1000.pfb" 1607249373 145408 43d44302ca7d82d487f511f83e309505 ""
  "/usr/share/texmf-dist/fonts/type1/public/cm-super/sfbx1200.pfb" 1607249373 140176 d4962f948b4cc0adf4d3dde77a128c95 ""
  "/usr/share/texmf-dist/fonts/type1/public/cm-super/sfbx1440.pfb" 1607249373 135942 859a90cad7494a1e79c94baf546d7de5 ""
  "/usr/share/texmf-dist/fonts/type1/public/cm-super/sfcc1000.pfb" 1607249373 109713 30d6420127e1c84309fa7008a69b7170 ""
  "/usr/share/texmf-dist/fonts/type1/public/cm-super/sfrm0500.pfb" 1607249373 180418 5fa231fda2d05a9c0eca9fd483cc7254 ""
  "/usr/share/texmf-dist/fonts/type1/public/cm-super/sfrm1000.pfb" 1607249373 138258 6525c253f16cededa14c7fd0da7f67b2 ""
  "/usr/share/texmf-dist/fonts/type1/public/cm-super/sfrm1200.pfb" 1607249373 136101 f533469f523533d38317ab5729d00c8a ""
  "/usr/share/texmf-dist/fonts/type1/public/cm-super/sfrm1728.pfb" 1607249373 131438 3aa300b3e40e5c8ba7b4e5c6cebc5dd6 ""
  "/usr/share/texmf-dist/fonts/type1/public/cm-super/sftt0800.pfb" 1607249373 175641 e30a691dc1402b08fd6535cf8a31e5b7 ""
  "/usr/share/texmf-dist/tex/context/base/mkii/supp-pdf.mkii" 1607249373 71627 94eb9990bed73c364d7f53f960cc8c5b ""
  "/usr/share/texmf-dist/tex/generic/babel-french/french.ldf" 1607249373 67704 4c1daff3b397362294827ad011863ee0 ""
  "/usr/share/texmf-dist/tex/generic/babel/babel.def" 1607249373 117107 1581fb598640513906da8cad532ce3fe ""
  "/usr/share/texmf-dist/tex/generic/babel/babel.sty" 1607249373 37603 238ec77f17efb6cad12f8184b4ff9c28 ""
  "/usr/share/texmf-dist/tex/generic/babel/txtbabel.def" 1607249373 5230 e5dd3bd60e99368f77a36ca54b2bb859 ""
  "/usr/share/texmf-dist/tex/generic/iftex/iftex.sty" 1607249373 6501 4011d89d9621e0b0901138815ba5ff29 ""
  "/usr/share/texmf-dist/tex/generic/iftex/ifvtex.sty" 1607249373 1057 525c2192b5febbd8c1f662c9468335bb ""
  "/usr/share/texmf-dist/tex/latex/amscls/amsthm.sty" 1607249373 12594 0d51ac3a545aaaa555021326ff22a6cc ""
  "/usr/share/texmf-dist/tex/latex/amsfonts/amsfonts.sty" 1607249373 5949 3f3fd50a8cc94c3d4cbf4fc66cd3df1c ""
  "/usr/share/texmf-dist/tex/latex/amsfonts/amssymb.sty" 1607249373 13829 94730e64147574077f8ecfea9bb69af4 ""
  "/usr/share/texmf-dist/tex/latex/amsfonts/umsa.fd" 1607249373 961 6518c6525a34feb5e8250ffa91731cff ""
  "/usr/share/texmf-dist/tex/latex/amsfonts/umsb.fd" 1607249373 961 d02606146ba5601b5645f987c92e6193 ""
  "/usr/share/texmf-dist/tex/latex/amsmath/amsbsy.sty" 1607249373 2211 ca7ce284ab93c8eecdc6029dc5ccbd73 ""
  "/usr/share/texmf-dist/tex/latex/amsmath/amsgen.sty" 1607249373 4161 7f6eb9092061a11f87d08ed13515b48d ""
  "/usr/share/texmf-dist/tex/latex/amsmath/amsmath.sty" 1607249373 87353 2c21ff5f2e32e1bf714e600924d810db ""
  "/usr/share/texmf-dist/tex/latex/amsmath/amsopn.sty" 1607249373 4116 32e6abd27229755a83a8b7f18e583890 ""
  "/usr/share/texmf-dist/tex/latex/amsmath/amstext.sty" 1607249373 2432 8ff93b1137020e8f21930562a874ae66 ""
  "/usr/share/texmf-dist/tex/latex/base/fontenc.sty" 1607249373 4947 8cb7717f0cc771eca0fda15160c7fee9 ""
  "/usr/share/texmf-dist/tex/latex/base/inputenc.sty" 1607249373 5050 0d3b77275060ca09a40635b830c3c904 ""
  "/usr/share/texmf-dist/tex/latex/base/report.cls" 1607249373 23204 74c91ecbcc47161218f25d9d0651c0f7 ""
  "/usr/share/texmf-dist/tex/latex/base/size10.clo" 1607249373 8449 a72d5d4e612221b46000c3d71724e0ef ""
  "/usr/share/texmf-dist/tex/latex/base/t1cmtt.fd" 1607249373 2444 92c1f2a3fb5fbd5ac60f99eac55c9b29 ""
  "/usr/share/texmf-dist/tex/latex/carlisle/scalefnt.sty" 1607249373 1360 df2086bf924b14b72d6121fe9502fcdb ""
  "/usr/share/texmf-dist/tex/latex/epstopdf-pkg/epstopdf-base.sty" 1607249373 13886 d1306dcf79a944f6988e688c1785f9ce ""
  "/usr/share/texmf-dist/tex/latex/float/float.sty" 1607249373 6749 16d2656a1984957e674b149555f1ea1d ""
  "/usr/share/texmf-dist/tex/latex/geometry/geometry.sty" 1607249373 41601 9cf6c5257b1bc7af01a58859749dd37a ""
  "/usr/share/texmf-dist/tex/latex/graphics-cfg/color.cfg" 1607249373 1213 620bba36b25224fa9b7e1ccb4ecb76fd ""
  "/usr/share/texmf-dist/tex/latex/graphics-cfg/graphics.cfg" 1607249373 1224 978390e9c2234eab29404bc21b268d1e ""
  "/usr/share/texmf-dist/tex/latex/graphics-def/pdftex.def" 1607249373 19103 48d29b6e2a64cb717117ef65f107b404 ""
  "/usr/share/texmf-dist/tex/latex/graphics/graphics.sty" 1607249373 18272 a8c6a275b34ab6717ceeb8fa04b104e2 ""
  "/usr/share/texmf-dist/tex/latex/graphics/graphicx.sty" 1607249373 7919 20fdfdd783821971c55bc8ee918cbe63 ""
  "/usr/share/texmf-dist/tex/latex/graphics/keyval.sty" 1607249373 2590 e3b24ff953e5b58d924f163d25380312 ""
  "/usr/share/texmf-dist/tex/latex/graphics/trig.sty" 1607249373 3976 d7fa7d81d2870d509d25b17d0245e735 ""
  "/usr/share/texmf-dist/tex/latex/l3backend/l3backend-pdftex.def" 1607249373 23704 02c466ff883953a445c97e55638005fc ""
  "/usr/share/texmf-dist/tex/latex/latexconfig/epstopdf-sys.cfg" 1607249373 678 4792914a8f45be57bb98413425e4c7af ""
  "/usr/share/texmf-dist/tex/latex/listings/listings.cfg" 1607249373 1830 e31effa752c61538383451ae21332364 ""
  "/usr/share/texmf-dist/tex/latex/listings/listings.sty" 1607249373 80964 64e57373f36316e4a09b517cbf1aba2e ""
  "/usr/share/texmf-dist/tex/latex/listings/lstlang1.sty" 1607249373 204271 bae5b2d457283e99567249c1990510be ""
  "/usr/share/texmf-dist/tex/latex/listings/lstmisc.sty" 1607249373 77022 ee25ce086f4a79d8cf73bac6f94c02a5 ""
  "/usr/share/texmf-dist/tex/latex/tools/array.sty" 1607249373 12675 9a7bbb9e485cd81cdcc1d56212b088ff ""
  "/usr/share/texmf-dist/tex/latex/tools/enumerate.sty" 1607249373 3469 19b6cb25f21abe53fb90b9fe27615441 ""
  "/usr/share/texmf-dist/tex/latex/tools/verbatim.sty" 1607249373 7393 0d25b7703252c0e57705583c6e9127ec ""
  "/usr/share/texmf-dist/tex/latex/xcolor/xcolor.sty" 1607249373 55589 34128738f682d033422ca125f82e5d62 ""
  "/usr/share/texmf-dist/web2c/texmf.cnf" 1607249373 33301 a3134070eacafb10b1f371612ce2650d ""
  "/var/lib/texmf/fonts/map/pdftex/updmap/pdftex.map" 1610198216 334487 264baa1301fc3ae75d0cd4255b71b832 ""
  "/var/lib/texmf/web2c/pdftex/pdflatex.fmt" 1610198213 2635859 922b79b7b305f234217ad795c8f08e04 ""
  "rapport.aux" 1610862457 2057 80aa1d1e819b59482183e9d99c27c5cd "pdflatex"
  "rapport.tex" 1610862457 12538 129daddd5d8c4ca417d029e120cfb3e8 ""
  (generated)
  "rapport.log"
  "/home/quentin/Documents/TPs/ProgObj/tp1-oop/doc/rapport.log"
  "/home/quentin/Documents/TPs/ProgObj/tp1-oop/doc/rapport.pdf"
  "rapport.aux"
  "rapport.pdf"
